<?xml version="1.0" encoding="utf-8"?>
<!-- Generator: Adobe Illustrator 21.0.1, SVG Export Plug-In . SVG Version: 6.00 Build 0)  -->
<svg version="1.1" id="Layer_1" xmlns="http://www.w3.org/2000/svg" xmlns:xlink="http://www.w3.org/1999/xlink" x="0px" y="0px"
	 viewBox="0 0 1493 226.8" style="enable-background:new 0 0 1493 226.8;" xml:space="preserve">
<style type="text/css">
	.st0{fill:#BCBCBC;}
</style>
<g>
	<g>
		<rect class="st0" width="210.4" height="88.3"/>
		<rect y="138.5" class="st0" width="210.4" height="88.3"/>
	</g>
	<g>
		<rect x="1282.6" class="st0" width="210.4" height="88.3"/>
		<rect x="1282.6" y="138.5" class="st0" width="210.4" height="88.3"/>
	</g>
	<g>
		<path class="st0" d="M277.1,185.6H318V41.2h-40.9V0H425v41.2h-41.2v144.4h59c8,0,14.5-0.5,19.5-1.6s8.8-3,11.5-5.7s4.5-6.4,5.4-11
			s1.3-10.7,1.3-18v-12h48.7v89.5H277.1V185.6z"/>
		<path class="st0" d="M772.8,0h146.3v41.2h-40.9v144.4h40.9v41.2h-132v-41.2h25.3V76.9H812l-45.1,149.9h-43.5L679,76.9h-0.6v108.7
			h24v41.2H571.6v-41.2h40.9V41.2h-40.9V0h147.9l26.9,97.3h0.3L772.8,0z"/>
		<path class="st0" d="M963.9,185.6h40.9V41.2h-40.9V0h147.9v41.2h-41.2v144.4h59c8,0,14.5-0.5,19.5-1.6s8.8-3,11.5-5.7
			s4.5-6.4,5.4-11s1.3-10.7,1.3-18v-12h48.7v89.5H963.9V185.6z"/>
	</g>
</g>
</svg>
