<?xml version="1.0" encoding="utf-8"?>
<!-- Generator: Adobe Illustrator 21.0.1, SVG Export Plug-In . SVG Version: 6.00 Build 0)  -->
<svg version="1.1" id="Layer_1" xmlns="http://www.w3.org/2000/svg" xmlns:xlink="http://www.w3.org/1999/xlink" x="0px" y="0px"
	 viewBox="0 0 100 100" style="enable-background:new 0 0 100 100;" xml:space="preserve">
<g transform="translate(0,-952.36218)">
	<path d="M85.6,1001.2l-27.5-29.2c-0.7-0.7-1.8-0.7-2.4-0.1c-0.7,0.6-0.7,1.8-0.1,2.4l24.8,26.3H1.7c-0.9,0-1.7,0.8-1.7,1.7
		c0,0.9,0.8,1.7,1.7,1.7h78.6l-24.8,26.3c-0.6,0.7-0.6,1.8,0.1,2.4c0.7,0.6,1.7,0.6,2.4-0.1l27.5-29.2
		C86.2,1002.7,86.1,1001.7,85.6,1001.2L85.6,1001.2z"/>
</g>
</svg>
