<?xml version="1.0" encoding="utf-8"?>
<!-- Generator: Adobe Illustrator 21.0.1, SVG Export Plug-In . SVG Version: 6.00 Build 0)  -->
<svg version="1.1" id="Layer_1" xmlns="http://www.w3.org/2000/svg" xmlns:xlink="http://www.w3.org/1999/xlink" x="0px" y="0px"
	 viewBox="0 0 45.8 79.8" style="enable-background:new 0 0 45.8 79.8;" xml:space="preserve">
<style type="text/css">
	.st0{fill:#FFFFFF;}
</style>
<path class="st0" d="M1.7,78.1c-2.3-2.4-2.3-6.2,0-8.5l29.7-29.7L1.7,10.2c-2.3-2.4-2.3-6.2,0-8.5c2.4-2.3,6.2-2.3,8.5,0l33.9,33.9
	c2.3,2.4,2.3,6.2,0,8.5l-33.9,34C7.8,80.4,4,80.4,1.7,78.1z"/>
</svg>
