<?xml version="1.0" encoding="utf-8"?>
<!-- Generator: Adobe Illustrator 21.0.1, SVG Export Plug-In . SVG Version: 6.00 Build 0)  -->
<svg version="1.1" id="Layer_1" xmlns="http://www.w3.org/2000/svg" xmlns:xlink="http://www.w3.org/1999/xlink" x="0px" y="0px"
	 viewBox="0 0 200 135" style="enable-background:new 0 0 200 135;" xml:space="preserve">
<style type="text/css">
	.st0{fill:#FFFFFF;}
</style>
<g>
	<polygon class="st0" points="119.7,104.5 125.1,104.5 125.1,46.3 119.7,46.3 	"/>
	<polygon class="st0" points="130,104.5 135.4,104.5 135.4,49.4 130,49.4 	"/>
	<g>
		<path class="st0" d="M70.2,85c-8,0-14.5,6.5-14.5,14.5S62.2,114,70.2,114s14.5-6.5,14.5-14.5S78.2,85,70.2,85z"/>
		<path class="st0" d="M102.1,29H51.2c-7.5,0-13.5,6.1-13.5,13.5v78.3c0,7.4,6.1,13.5,13.5,13.5h50.9c7.5,0,13.5-6.1,13.5-13.5V42.5
			C115.6,35.1,109.5,29,102.1,29z M70.2,119.3c-11,0-19.9-8.9-19.9-19.9s8.9-19.9,19.9-19.9s19.9,8.9,19.9,19.9
			S81.1,119.3,70.2,119.3z M94,61.1c-6.6,0-12-5.4-12-12s5.4-12,12-12s12,5.4,12,12C106.1,55.7,100.7,61.1,94,61.1z"/>
		<path class="st0" d="M94,42.5c-3.6,0-6.6,3-6.6,6.6s3,6.6,6.6,6.6s6.6-3,6.6-6.6S97.7,42.5,94,42.5z"/>
	</g>
	<polygon class="st0" points="145.6,67.2 145.6,57.5 140.2,57.5 140.2,109.6 119.8,109.6 119.8,115 145.6,115 145.6,114.9 
		145.6,114.9 145.6,103.8 162.3,103.8 162.3,67.2 	"/>
</g>
</svg>
